<?xml version="1.0" encoding="UTF-8" standalone="no"?>
<!-- Created with Inkscape (http://www.inkscape.org/) -->

<svg
   xmlns:dc="http://purl.org/dc/elements/1.1/"
   xmlns:cc="http://creativecommons.org/ns#"
   xmlns:rdf="http://www.w3.org/1999/02/22-rdf-syntax-ns#"
   xmlns:svg="http://www.w3.org/2000/svg"
   xmlns="http://www.w3.org/2000/svg"
   xmlns:sodipodi="http://sodipodi.sourceforge.net/DTD/sodipodi-0.dtd"
   xmlns:inkscape="http://www.inkscape.org/namespaces/inkscape"
   id="svg3884"
   sodipodi:docname="bulle5_2.svg"
   viewBox="0 0 150 112.1"
   version="1.1"
   inkscape:version="0.92.1 r15371"
   width="160"
   height="119.57333"
   inkscape:export-filename="C:\Users\ezimmert\Desktop\bulle5_2.png"
   inkscape:export-xdpi="60.216572"
   inkscape:export-ydpi="60.216572">
  <defs
     id="defs3886">
    <filter
       id="filter3721"
       width="1.2199"
       y="-0.1321"
       x="-0.10993"
       height="1.2642"
       inkscape:collect="always"
       style="color-interpolation-filters:sRGB">
      <feGaussianBlur
         id="feGaussianBlur3723"
         stdDeviation="1.5830058"
         inkscape:collect="always" />
    </filter>
  </defs>
  <sodipodi:namedview
     id="base"
     bordercolor="#666666"
     inkscape:pageshadow="2"
     inkscape:window-y="-8"
     pagecolor="#ffffff"
     inkscape:window-height="1018"
     inkscape:window-maximized="1"
     inkscape:zoom="5.165521"
     inkscape:window-x="-8"
     showgrid="false"
     borderopacity="1.0"
     inkscape:current-layer="layer1"
     inkscape:cx="110.94362"
     inkscape:cy="52.713752"
     inkscape:window-width="1920"
     inkscape:pageopacity="0.0"
     inkscape:document-units="px" />
  <g
     id="layer1"
     inkscape:label="Calque 1"
     inkscape:groupmode="layer"
     transform="translate(-243.57,-426.69)">
    <g
       id="g3746"
       transform="matrix(-3.558,0,0,3.0831,1642.3156,-1139.5)">
      <path
         id="path2892-8-3"
         sodipodi:nodetypes="ccccssccsc"
         style="fill:none;filter:url(#filter3721)"
         d="m 360.88,531.88 c -1.4496,3.5554 -4.0544,5.8735 -6.11,8.6826 2.9085,-2.0738 6.2093,-4.0858 9.0488,-7.3023 m -2.9459,-1.3798 c -3.4178,-2.0992 -5.6521,-5.239 -5.6521,-8.5986 0,-6.3396 7.6357,-11.479 17.055,-11.479 9.4191,0 17.055,5.1393 17.055,11.479 0,6.3396 -7.6357,11.479 -17.055,11.479 -3.0779,0 -5.9653,-0.54876 -8.4581,-1.5088"
         inkscape:connector-curvature="0" />
      <path
         id="path2892-8"
         sodipodi:nodetypes="ccccssccsc"
         style="fill:#ffffff;stroke:#000000;stroke-width:0.30193001;stroke-linecap:round;stroke-linejoin:round"
         d="m 360.88,529.88 c -1.4496,3.5554 -4.0544,5.8735 -6.11,8.6826 2.9085,-2.0738 6.2093,-4.0858 9.0488,-7.3023 m -2.9459,-1.3798 c -3.4178,-2.0992 -5.6521,-5.239 -5.6521,-8.5986 0,-6.3396 7.6357,-11.479 17.055,-11.479 9.4191,0 17.055,5.1393 17.055,11.479 0,6.3396 -7.6357,11.479 -17.055,11.479 -3.0779,0 -5.9653,-0.54876 -8.4581,-1.5088"
         inkscape:connector-curvature="0" />
    </g>
  </g>
  <metadata
     id="metadata10">
    <rdf:RDF>
      <cc:Work>
        <dc:format>image/svg+xml</dc:format>
        <dc:type
           rdf:resource="http://purl.org/dc/dcmitype/StillImage" />
        <cc:license
           rdf:resource="http://creativecommons.org/publicdomain/zero/1.0/" />
        <dc:publisher>
          <cc:Agent
             rdf:about="http://openclipart.org/">
            <dc:title>Openclipart</dc:title>
          </cc:Agent>
        </dc:publisher>
        <dc:title />
        <dc:date>2010-04-06T21:02:16</dc:date>
        <dc:description>cartoon,speech bubble</dc:description>
        <dc:source>https://openclipart.org/detail/38623/cartoonspeech-bubble-by-pascallapalme</dc:source>
        <dc:creator>
          <cc:Agent>
            <dc:title>pascallapalme</dc:title>
          </cc:Agent>
        </dc:creator>
        <dc:subject>
          <rdf:Bag>
            <rdf:li>cartoon</rdf:li>
            <rdf:li>speech bubble</rdf:li>
          </rdf:Bag>
        </dc:subject>
      </cc:Work>
      <cc:License
         rdf:about="http://creativecommons.org/publicdomain/zero/1.0/">
        <cc:permits
           rdf:resource="http://creativecommons.org/ns#Reproduction" />
        <cc:permits
           rdf:resource="http://creativecommons.org/ns#Distribution" />
        <cc:permits
           rdf:resource="http://creativecommons.org/ns#DerivativeWorks" />
      </cc:License>
    </rdf:RDF>
  </metadata>
</svg>
